<?xml version="1.0" encoding="utf-8"?>
<!-- Generator: Adobe Illustrator 22.0.1, SVG Export Plug-In . SVG Version: 6.00 Build 0)  -->
<svg version="1.1" id="Layer_1" xmlns="http://www.w3.org/2000/svg" xmlns:xlink="http://www.w3.org/1999/xlink" x="0px" y="0px"
	 viewBox="0 0 685.4 561.2" style="enable-background:new 0 0 685.4 561.2;" xml:space="preserve">
<style type="text/css">
	.st0{fill:url(#SVGID_1_);}
	.st1{fill:url(#SVGID_2_);}
	.st2{fill:url(#SVGID_3_);}
	.st3{fill:url(#SVGID_4_);}
	.st4{fill:url(#SVGID_5_);}
	.st5{fill:url(#SVGID_6_);}
	.st6{fill:url(#SVGID_7_);}
	.st7{fill:url(#SVGID_8_);}
	.st8{fill:url(#SVGID_9_);}
	.st9{fill:url(#SVGID_10_);}
	.st10{fill:url(#SVGID_11_);}
	.st11{fill:url(#SVGID_12_);}
	.st12{fill:#FEFEFE;}
	.st13{enable-background:new    ;}
	.st14{fill:#808080;}
	.st15{clip-path:url(#SVGID_14_);}
	.st16{fill:url(#SVGID_17_);}
	.st17{fill:url(#SVGID_18_);}
	.st18{opacity:0.62;}
	.st19{fill:#FFFFFF;}
</style>
<g>
	<g>
		
			<image style="overflow:visible;opacity:0.75;" width="48" height="33" xlink:href="F1066E29760DBE47.png"  transform="matrix(1 0 0 1 181.665 352.6847)">
		</image>
		<g>
			
				<linearGradient id="SVGID_1_" gradientUnits="userSpaceOnUse" x1="245.1731" y1="396.7777" x2="245.1731" y2="374.4665" gradientTransform="matrix(1.3622 9.110000e-02 -6.670000e-02 0.9978 -104.1151 -41.8139)">
				<stop  offset="0" style="stop-color:#5975B1"/>
				<stop  offset="0.2827" style="stop-color:#1C3258"/>
				<stop  offset="0.6233" style="stop-color:#000000"/>
			</linearGradient>
			<path class="st0" d="M222.5,377.7c0,0-43.9-4.2-36.6-17.7c0,0,15.3-5.4,36-4.7L222.5,377.7z"/>
		</g>
	</g>
	<linearGradient id="SVGID_2_" gradientUnits="userSpaceOnUse" x1="24.944" y1="451.644" x2="357.7603" y2="118.8277">
		<stop  offset="0" style="stop-color:#A17214"/>
		<stop  offset="0.2634" style="stop-color:#F4EFCF"/>
		<stop  offset="0.3871" style="stop-color:#E5CA7A"/>
		<stop  offset="0.6398" style="stop-color:#E5CA7A"/>
		<stop  offset="0.7419" style="stop-color:#F4EFCF"/>
		<stop  offset="0.8602" style="stop-color:#E5CA7A"/>
		<stop  offset="0.9073" style="stop-color:#D0AF5B"/>
		<stop  offset="1" style="stop-color:#A17214"/>
	</linearGradient>
	<path class="st1" d="M171.6,523.8c-87.4,0-161.8-53.2-161.8-156.3c0-35.5,10.2-68.3,42.3-133.1l97.6-200.7h122.9l-96.2,190.4
		c9.6-3.4,19.8-3.4,27.3-3.4c59.4,0,129.7,50.5,129.7,146.8C333.3,470.5,258.9,523.8,171.6,523.8z M171.6,312.2
		c-27.3,0-49.8,19.1-49.8,55.3s22.5,55.3,49.8,55.3c27.3,0,49.8-19.1,49.8-55.3S198.9,312.2,171.6,312.2z"/>
	<g>
		<linearGradient id="SVGID_3_" gradientUnits="userSpaceOnUse" x1="-51.7107" y1="401.6874" x2="294.4546" y2="55.5221">
			<stop  offset="0" style="stop-color:#A17214"/>
			<stop  offset="1" style="stop-color:#A17214"/>
		</linearGradient>
		<path class="st2" d="M176.3,224.1l96.2-190.4h-6.7l-97.3,193.1C171.1,225.8,173.9,224.9,176.3,224.1z"/>
		<linearGradient id="SVGID_4_" gradientUnits="userSpaceOnUse" x1="105.2068" y1="531.5765" x2="438.0228" y2="198.7604">
			<stop  offset="0" style="stop-color:#A17214"/>
			<stop  offset="1" style="stop-color:#A17214"/>
		</linearGradient>
		<path class="st3" d="M299.8,267.5c17.9,23.7,29.5,55.3,29.5,94.6c0,103.1-74.4,156.3-161.8,156.3c-51.2,0-97.9-18.3-127.9-54.2
			c29.7,39.3,78.3,59.4,132,59.4c87.4,0,161.8-53.2,161.8-156.3C333.4,325.1,319.9,291.7,299.8,267.5z"/>
		<linearGradient id="SVGID_5_" gradientUnits="userSpaceOnUse" x1="33.9417" y1="460.5687" x2="366.7569" y2="127.7535">
			<stop  offset="0" style="stop-color:#A17214"/>
			<stop  offset="1" style="stop-color:#A17214"/>
		</linearGradient>
		<path class="st4" d="M122,367.6c0-36.2,22.5-55.3,49.8-55.3c14.1,0,26.9,5.1,36,15.1c-9.1-13.3-23.7-20.2-40.1-20.2
			c-27.3,0-49.8,19.1-49.8,55.3c0,17.5,5.3,31,13.8,40.2C125.6,393.8,122,382.1,122,367.6z"/>
	</g>
	<g>
		<g>
			
				<image style="overflow:visible;" width="1" height="1" xlink:href="F1066E29760DBE45.png"  transform="matrix(0.807 0 0 0.807 505.0677 473.6228)">
			</image>
		</g>
		<g>
			
				<image style="overflow:visible;" width="483" height="539" xlink:href="F1066E29760DBE4B.png"  transform="matrix(1 0 0 1 221.9169 7.9366)">
			</image>
		</g>
		<g>
			
				<image style="overflow:visible;" width="156" height="272" xlink:href="F1066E29760DBE4D.png"  transform="matrix(1 0 0 1 216.9169 193.9366)">
			</image>
		</g>
		<g>
			<g>
				<g>
					
						<image style="overflow:visible;" width="1" height="1" xlink:href="F1066E29760DBE4F.png"  transform="matrix(0.807 0 0 0.807 504.8993 473.6228)">
					</image>
				</g>
				<linearGradient id="SVGID_6_" gradientUnits="userSpaceOnUse" x1="530.2776" y1="516.1924" x2="360.4594" y2="49.6207">
					<stop  offset="0" style="stop-color:#A3752A"/>
					<stop  offset="9.044320e-02" style="stop-color:#A3752A"/>
					<stop  offset="0.1151" style="stop-color:#B48C41"/>
					<stop  offset="0.1665" style="stop-color:#E0C67B"/>
					<stop  offset="0.1737" style="stop-color:#E6CF84"/>
					<stop  offset="0.2752" style="stop-color:#F1F0CF"/>
					<stop  offset="0.4478" style="stop-color:#E7C879"/>
					<stop  offset="0.6378" style="stop-color:#BA9048"/>
					<stop  offset="0.6713" style="stop-color:#CEA95E"/>
					<stop  offset="0.7177" style="stop-color:#E7C879"/>
					<stop  offset="0.792" style="stop-color:#F1F0CF"/>
					<stop  offset="1" style="stop-color:#E7C879"/>
				</linearGradient>
				<path class="st5" d="M470.5,74.1C576.4,126.9,651.3,264.3,637.9,381c-5.2,45.7,0.2,71.1-26.1,94.5
					c-15.1,13.5-56.4,33.3-76.2,38.1c-33.7,8.3-73,3.5-113.6-16.8C316.3,444.1,241.4,306.7,254.8,190c4.9-42.8,21-76.8,44.6-100.2
					c15-14.8,34.4-26.7,53-36.6C384.2,36.2,428.1,53,470.5,74.1z"/>
				<linearGradient id="SVGID_7_" gradientUnits="userSpaceOnUse" x1="598.3371" y1="481.9125" x2="351.1762" y2="53.8172">
					<stop  offset="0" style="stop-color:#A3752A"/>
					<stop  offset="8.291421e-02" style="stop-color:#CEA95B"/>
					<stop  offset="0.1398" style="stop-color:#E7C879"/>
					<stop  offset="0.2581" style="stop-color:#F1F0CF"/>
					<stop  offset="0.3602" style="stop-color:#E7C879"/>
					<stop  offset="0.4892" style="stop-color:#A3752A"/>
					<stop  offset="0.5626" style="stop-color:#CEA95B"/>
					<stop  offset="0.6129" style="stop-color:#E7C879"/>
					<stop  offset="0.7366" style="stop-color:#F1F0CF"/>
					<stop  offset="0.8387" style="stop-color:#E7C879"/>
					<stop  offset="1" style="stop-color:#A3752A"/>
				</linearGradient>
				<path class="st6" d="M499,56.5c105.8,52.8,180.7,190.2,167.3,306.9c-13.4,116.7-110,168.6-215.8,115.8
					c-105.8-52.8-180.7-190.2-167.3-306.9C296.6,55.6,393.2,3.7,499,56.5z"/>
			</g>
			<g>
				<g>
					<linearGradient id="SVGID_8_" gradientUnits="userSpaceOnUse" x1="336.2605" y1="242.2593" x2="650.416" y2="242.2593">
						<stop  offset="0" style="stop-color:#A3752A"/>
						<stop  offset="8.291421e-02" style="stop-color:#CEA95B"/>
						<stop  offset="0.1398" style="stop-color:#E7C879"/>
						<stop  offset="0.2581" style="stop-color:#F1F0CF"/>
						<stop  offset="0.3602" style="stop-color:#E7C879"/>
						<stop  offset="0.4892" style="stop-color:#A3752A"/>
						<stop  offset="0.5626" style="stop-color:#CEA95B"/>
						<stop  offset="0.6129" style="stop-color:#E7C879"/>
						<stop  offset="0.7366" style="stop-color:#F1F0CF"/>
						<stop  offset="0.8387" style="stop-color:#E7C879"/>
						<stop  offset="1" style="stop-color:#A3752A"/>
					</linearGradient>
					<path class="st7" d="M503,81.1c-69-34.4-133.6-17.8-166.7,35.4c34.2-47.9,96.2-61.8,162.3-28.8c92.4,46.1,157.8,166,146.1,268
						c-2.9,25.7-10.5,47.8-21.7,65.8c13.6-19,22.8-43.4,26.1-72.3C660.7,247.1,595.3,127.2,503,81.1z"/>
				</g>
				<g>
					<linearGradient id="SVGID_9_" gradientUnits="userSpaceOnUse" x1="288.6918" y1="265.6659" x2="674.9169" y2="265.6659">
						<stop  offset="0" style="stop-color:#A3752A"/>
						<stop  offset="8.291421e-02" style="stop-color:#CEA95B"/>
						<stop  offset="0.1398" style="stop-color:#E7C879"/>
						<stop  offset="0.2581" style="stop-color:#F1F0CF"/>
						<stop  offset="0.3602" style="stop-color:#E7C879"/>
						<stop  offset="0.4892" style="stop-color:#A3752A"/>
						<stop  offset="0.5626" style="stop-color:#CEA95B"/>
						<stop  offset="0.6129" style="stop-color:#E7C879"/>
						<stop  offset="0.7366" style="stop-color:#F1F0CF"/>
						<stop  offset="0.8387" style="stop-color:#E7C879"/>
						<stop  offset="1" style="stop-color:#A3752A"/>
					</linearGradient>
					<path class="st8" d="M506,54.3c105.8,52.8,180.7,190.2,167.3,306.9C660,477.9,563.4,529.8,457.6,477
						c-105.8-52.8-180.7-190.2-167.3-306.9C303.6,53.4,400.2,1.5,506,54.3z M460.7,450.2c92.4,46.1,176.7,0.8,188.4-101.1
						c11.7-101.9-53.7-221.9-146.1-268c-92.3-46.1-176.7-0.8-188.4,101.2C302.9,284.2,368.3,404.1,460.7,450.2"/>
					<linearGradient id="SVGID_10_" gradientUnits="userSpaceOnUse" x1="290.8945" y1="265.6664" x2="672.7138" y2="265.6664">
						<stop  offset="0" style="stop-color:#A3752A"/>
						<stop  offset="8.291421e-02" style="stop-color:#CEA95B"/>
						<stop  offset="0.1398" style="stop-color:#E7C879"/>
						<stop  offset="0.2581" style="stop-color:#F1F0CF"/>
						<stop  offset="0.3602" style="stop-color:#E7C879"/>
						<stop  offset="0.4892" style="stop-color:#A3752A"/>
						<stop  offset="0.5626" style="stop-color:#CEA95B"/>
						<stop  offset="0.6129" style="stop-color:#E7C879"/>
						<stop  offset="0.7366" style="stop-color:#F1F0CF"/>
						<stop  offset="0.8387" style="stop-color:#E7C879"/>
						<stop  offset="1" style="stop-color:#A3752A"/>
					</linearGradient>
					<path class="st9" d="M538.5,495.5c-25.9,0-52.8-6.9-80-20.4c-104.9-52.3-179.4-189-166.1-304.7
						c9.4-81.7,61.4-134.5,132.7-134.5c25.9,0,52.8,6.9,80,20.4c104.9,52.3,179.4,189,166.1,304.7
						C661.8,442.7,609.7,495.5,538.5,495.5z M432.3,60.9c-64.4,0-111.5,47.5-119.9,121.1c-11.8,102.6,54.3,223.8,147.3,270.1
						c24.3,12.1,48.4,18.3,71.7,18.3c64.4,0,111.5-47.5,119.9-121.1C663,246.7,596.9,125.5,503.9,79.1
						C479.7,67,455.6,60.9,432.3,60.9z"/>
				</g>
				<linearGradient id="SVGID_11_" gradientUnits="userSpaceOnUse" x1="290.8945" y1="289.3111" x2="669.774" y2="289.3111">
					<stop  offset="0" style="stop-color:#A3752A"/>
					<stop  offset="8.291421e-02" style="stop-color:#CEA95B"/>
					<stop  offset="0.1398" style="stop-color:#E7C879"/>
					<stop  offset="0.2581" style="stop-color:#F1F0CF"/>
					<stop  offset="0.3602" style="stop-color:#E7C879"/>
					<stop  offset="0.4892" style="stop-color:#A3752A"/>
					<stop  offset="0.5626" style="stop-color:#CEA95B"/>
					<stop  offset="0.6129" style="stop-color:#E7C879"/>
					<stop  offset="0.7366" style="stop-color:#F1F0CF"/>
					<stop  offset="0.8387" style="stop-color:#E7C879"/>
					<stop  offset="1" style="stop-color:#A3752A"/>
				</linearGradient>
				<path class="st10" d="M669.8,370.9c-6.2-5.9-12.6-11.5-19.1-16.9c-9.9,70.9-56.3,116.4-119.3,116.4c-23.3,0-47.4-6.1-71.7-18.3
					c-93-46.4-159-167.5-147.3-270.1c3.2-27.9,12-52,25.1-71.3c-4.4-9-8.2-18.2-11.3-27.6c-17.9,22.5-29.7,52.2-33.7,87.3
					c-13.3,115.7,61.3,252.4,166.1,304.7c27.2,13.5,54.1,20.4,80,20.4C606.8,495.5,657.4,446.9,669.8,370.9z"/>
				<linearGradient id="SVGID_12_" gradientUnits="userSpaceOnUse" x1="589.703" y1="452.5264" x2="373.9319" y2="78.7999">
					<stop  offset="0" style="stop-color:#111628"/>
					<stop  offset="6.593070e-03" style="stop-color:#11172A"/>
					<stop  offset="0.115" style="stop-color:#162642"/>
					<stop  offset="0.2147" style="stop-color:#182F51"/>
					<stop  offset="0.2972" style="stop-color:#193256"/>
					<stop  offset="0.5045" style="stop-color:#14375F"/>
					<stop  offset="0.8423" style="stop-color:#084477"/>
					<stop  offset="1" style="stop-color:#014B85"/>
				</linearGradient>
				<path class="st11" d="M503,81.1c-76.9-38.4-148.3-13.3-176.7,55c-0.1,0.2-0.2,0.4-0.2,0.6c-1.5,3.7-2.9,7.5-4.2,11.4
					c-0.1,0.3-0.2,0.6-0.3,0.9c-0.6,1.9-1.2,3.8-1.7,5.8c0,0,0,0.1,0,0.1c-0.5,2-1,4-1.5,6c-0.1,0.4-0.2,0.8-0.3,1.2
					c-0.4,2-0.9,4-1.3,6c0,0.1,0,0.1,0,0.2c-0.4,2-0.7,4.1-1.1,6.2c-0.1,0.5-0.2,1-0.2,1.5c-0.3,2.1-0.6,4.2-0.9,6.4
					c-11.7,101.9,53.7,221.9,146.1,267.9c2.4,1.2,4.9,2.4,7.3,3.5c0.3,0.1,0.5,0.2,0.8,0.4c2.3,1,4.6,2,6.9,2.9
					c0.4,0.1,0.7,0.3,1.1,0.4c2.3,0.9,4.5,1.7,6.7,2.5c0.4,0.1,0.8,0.3,1.1,0.4c2.2,0.8,4.5,1.5,6.7,2.1c0.3,0.1,0.6,0.2,1,0.3
					c2.3,0.7,4.6,1.3,6.9,1.8c0.1,0,0.3,0.1,0.4,0.1c2.3,0.5,4.6,1,6.9,1.4c0.2,0,0.3,0.1,0.5,0.1c2.3,0.4,4.5,0.7,6.7,1
					c0.3,0,0.6,0.1,0.9,0.1c2.2,0.3,4.3,0.5,6.4,0.7c0.3,0,0.7,0.1,1,0.1c2.1,0.2,4.2,0.3,6.3,0.3c0.3,0,0.6,0,0.9,0
					c2.1,0,4.3,0,6.4-0.1c0.2,0,0.4,0,0.6,0c4.4-0.2,8.8-0.6,13-1.2c0.2,0,0.4-0.1,0.6-0.1c2-0.3,4-0.7,6-1.1
					c0.3-0.1,0.5-0.1,0.8-0.2c2-0.4,3.9-0.9,5.8-1.4c0.3-0.1,0.5-0.1,0.8-0.2c1.9-0.5,3.9-1.1,5.7-1.8c0.2-0.1,0.4-0.1,0.6-0.2
					c2-0.7,3.9-1.4,5.8-2.2c0,0,0,0,0,0c2-0.8,4-1.7,5.9-2.7c0,0,0.1,0,0.1-0.1c1.9-0.9,3.7-1.9,5.5-2.9c0.2-0.1,0.3-0.2,0.5-0.3
					c1.7-1,3.5-2,5.2-3.1c0.2-0.1,0.4-0.2,0.6-0.4c1.7-1.1,3.3-2.3,5-3.5c0.2-0.1,0.3-0.2,0.5-0.3c1.7-1.2,3.3-2.5,4.9-3.9
					c0,0,0.1-0.1,0.1-0.1c3.3-2.8,6.5-5.8,9.5-9.1c0.1-0.1,0.1-0.1,0.2-0.2c1.5-1.6,2.9-3.2,4.2-4.8c0.1-0.1,0.2-0.3,0.3-0.4
					c1.4-1.6,2.7-3.3,4-5.1c0.1-0.1,0.2-0.3,0.3-0.4c1.3-1.8,2.5-3.6,3.8-5.5c0.1-0.1,0.1-0.2,0.2-0.3c3.8-5.8,7.2-12.1,10.1-18.9
					c0.1-0.1,0.1-0.2,0.2-0.4c0.9-2.2,1.8-4.4,2.7-6.6c0.1-0.2,0.1-0.4,0.2-0.5c0.8-2.3,1.6-4.5,2.4-6.9c0-0.1,0.1-0.3,0.1-0.4
					c0.8-2.4,1.5-4.9,2.2-7.4v0l0,0c2.2-8.3,3.9-17.2,5-26.5C660.7,247.1,595.3,127.2,503,81.1z"/>
			</g>
			<g>
				<g>
					<path class="st12" d="M453.5,118.4c9.3-0.3,19,8.2,21.6,19.1c2.6,10.9-2.9,19.9-12.3,20.2c-9.4,0.3-19-8.2-21.6-19
						C438.6,127.8,444.1,118.7,453.5,118.4z"/>
				</g>
				<g>
					<path class="st12" d="M515.8,199.8c9.3-0.3,19,8.2,21.6,19s-2.9,19.9-12.2,20.3c-9.4,0.3-19-8.2-21.6-19.1
						C501,209.1,506.5,200.1,515.8,199.8z"/>
				</g>
				<g>
					<path class="st12" d="M473.3,201.3c9.3-0.3,19,8.2,21.6,19c2.6,10.9-2.9,19.9-12.2,20.3c-9.4,0.3-19-8.2-21.6-19.1
						C458.4,210.6,463.9,201.6,473.3,201.3z"/>
				</g>
				<g>
					<path class="st12" d="M442,160.7c9.4-0.3,19.1,8.2,21.7,19.1c2.6,10.8-2.9,19.9-12.3,20.3c-9.3,0.3-19-8.2-21.6-19.1
						C427.2,170.1,432.7,161.1,442,160.7z"/>
				</g>
				<g>
					<path class="st12" d="M484.9,159.2c9.4-0.3,19.1,8.2,21.7,19.1c2.6,10.8-2.9,19.9-12.2,20.3c-9.4,0.3-19.1-8.2-21.6-19.1
						C470.1,168.6,475.6,159.6,484.9,159.2z"/>
				</g>
				<g>
					<path class="st12" d="M430.3,202.8c9.4-0.3,19,8.2,21.6,19c2.6,10.9-2.9,19.9-12.2,20.3c-9.3,0.3-19-8.2-21.6-19.1
						C415.5,212.1,421,203.1,430.3,202.8z"/>
				</g>
				<g>
					<path class="st12" d="M461.8,244c5.8-0.2,12,3,16.1,8.1c3.9,4.9,3.6,6.5,2.5,6.5c-0.6,0-1.4-0.5-1.8-1.1
						c-2.4-4.1-6.7-7-9.1-6.9c-1.2,0-1.9,0.9-1.4,2.9c1.5,6.4,8,9.1,9.4,9.8c1.3,0.7,5,0.5,5.6,2.6c1.7,7.3-0.9,10.7-2.9,13.4
						c-1.2,1.5-4.6,3.8-9.2,3.9c-4.6,0.2-10.4-1.8-16.2-8.6c-4-4.7-3.4-6.3-2.3-6.4c0.5,0,1.2,0.3,1.6,0.9c2.4,4.1,7.1,6.9,9.7,6.8
						c1.4,0,2.2-0.9,1.7-2.9c-1.5-6.4-8.3-8.5-9.3-9.3c-1-0.8-5.1-0.6-5.7-3.1c-1.7-7.3,1.9-12.3,2.5-12.9
						C455.5,245.4,458.6,244.2,461.8,244z"/>
				</g>
				<g>
					<path class="st12" d="M419.8,245.5c7.7-0.3,15.6,5.4,19.6,13.5c0.4,0.9,0.1,1.4-0.5,1.4c-0.5,0-1.1-0.4-1.4-1.3
						c0-0.2-1.6-5.4-8.3-5.2c-6.7,0.2-5.5,5.4-5.4,5.7c0,0.2,0.7,4.1,7.7,3.9c0,0,0.1,0,0.2,0c0.8,0,3.3,0,3.6,1.2
						c0.3,1.2-2,1.4-2.8,1.4c-0.2,0-0.3,0-0.3,0c-7,0.2-5.8,4.2-5.7,4.4c0.1,0.3,1.3,5.4,8,5.2c6.7-0.2,5.7-5.3,5.7-5.6
						c-0.2-1.1,0.3-1.7,0.9-1.8c0.5,0,1,0.5,1.1,1.7c-0.1,8.2-5,14.6-12.8,14.9c-9.3,0.3-19-8.2-21.6-19.1
						C405,254.9,410.4,245.8,419.8,245.5z"/>
				</g>
				<g>
					<path class="st12" d="M568.8,260.1c0.2,0.8,4.4,15.9-10.8,16.5c-1,0-2.1,0-3.3-0.1c-0.1,0-1.4,0,2,1.8c0.9,0.5,1.4,1.9-1,2
						c-0.9,0-2.3-0.1-4.4-0.7c-7.5-2.3-14.3-9.6-16.4-18.4c-2.6-10.8,2.9-19.9,12.2-20.3C556.5,240.7,566.2,249.2,568.8,260.1z
						 M559.1,257.7c1.5-3,1.1-6.7-0.8-8.2c-0.6-0.5-1.2-0.7-1.9-0.6c-1.6,0.1-3.2,1.3-4.3,3.4c-1.5,3-1.1,6.7,0.8,8.2
						c0.6,0.5,1.2,0.7,1.9,0.6C556.4,261.1,558,259.8,559.1,257.7"/>
				</g>
				<g>
					<path class="st12" d="M504.7,242.5c9.4-0.3,19.1,8.2,21.6,19.1c2.4,9.9-2,18.3-9.9,19.9c0.4-1.4,0.5-3.4-0.1-5.6
						c-1-4.1-3.4-7.4-5.5-7.3c-2,0.1-2.9,3.5-1.9,7.6c0.5,2.2,1.5,4.2,2.6,5.5c-8.5-1.1-16.7-9.1-19.1-18.9
						C489.9,251.9,495.4,242.8,504.7,242.5z M509.3,262c1.9-0.1,2.5-3.5,1.5-7.6c-1-4.1-3.3-7.4-5.1-7.3c-1.8,0.1-2.5,3.4-1.6,7.5
						C505.2,258.8,507.5,262.1,509.3,262"/>
				</g>
				<g>
					<path class="st12" d="M475.9,318.6l0.5,0.4c-0.3,0.7-0.5,1.2-0.9,1.5c-0.3,0.4-0.8,0.5-1.3,0.5c-0.6,0-1.1-0.1-1.6-0.5
						c-0.4-0.3-0.8-0.9-1-1.6c-1,1.5-2.1,2.2-3.2,2.3c-0.6,0-1.2-0.2-1.8-0.7c-0.6-0.5-0.9-1.1-1.1-1.8c-0.2-1-0.1-1.9,0.5-2.7
						c0.5-0.8,1.9-1.9,4-3.3l-0.3-1.3c-0.2-1-0.4-1.6-0.6-1.8c-0.1-0.3-0.4-0.5-0.7-0.7c-0.3-0.2-0.6-0.3-0.9-0.3
						c-0.5,0-0.9,0.2-1.2,0.5l-0.2,0.6c0,0.2,0.2,0.4,0.5,0.7c0.4,0.4,0.6,0.7,0.7,1.1c0.1,0.5,0.1,0.9-0.2,1.2
						c-0.2,0.3-0.6,0.5-1,0.5c-0.5,0-1-0.1-1.4-0.5c-0.4-0.4-0.7-0.8-0.8-1.2c-0.2-0.7-0.1-1.3,0.2-1.9c0.3-0.6,0.8-1.1,1.6-1.5
						c0.7-0.4,1.5-0.6,2.4-0.6c1.1,0,2,0.2,2.7,0.7c0.7,0.5,1.3,1,1.6,1.7c0.2,0.4,0.5,1.3,0.8,2.7l1.2,5.1c0.1,0.6,0.2,1,0.3,1.1
						l0.3,0.3l0.3,0.1C475.6,319.2,475.7,319,475.9,318.6z M471.2,318l-1-4.3c-0.8,0.7-1.4,1.4-1.6,2.2c-0.2,0.5-0.2,1-0.1,1.5
						c0.1,0.4,0.3,0.8,0.6,1.1c0.2,0.2,0.6,0.3,0.9,0.3C470.4,318.8,470.8,318.5,471.2,318"/>
				</g>
				<g>
					<path class="st12" d="M458.8,302.3l3.9,16.3c0.2,0.9,0.5,1.5,0.7,1.7c0.3,0.2,0.7,0.4,1.2,0.4l0.1,0.5l-6.1,0.2l-0.1-0.5
						c0.5,0,0.9-0.2,1-0.5c0.1-0.2,0.1-0.8-0.2-1.7l-3.2-13.6c-0.2-0.9-0.4-1.5-0.7-1.7c-0.3-0.2-0.7-0.4-1.2-0.4l-0.1-0.5
						L458.8,302.3z"/>
				</g>
				<g>
					<path class="st12" d="M455.3,319.3c0.3-0.3,0.6-0.9,0.9-1.7l0.5,0.4c-0.3,1.4-0.7,2.4-1.3,3.1c-0.6,0.6-1.4,0.9-2.3,1
						c-1.7,0.1-3.1-0.6-4.3-2.1c-1-1.2-1.7-2.6-2.1-4.4c-0.5-2.2-0.4-3.9,0.3-5.2c0.7-1.3,1.7-2,3.1-2.1c1.1,0,2.3,0.5,3.4,1.5
						c1.1,1,1.9,2.6,2.5,4.7l-6.2,0.2c0.5,1.7,1.2,3.1,2.2,4.1c0.7,0.7,1.5,1.1,2.3,1.1C454.6,319.8,455,319.7,455.3,319.3z
						 M449.3,313.3l0.1,0.5l3.3-0.1c-0.4-1.5-0.7-2.5-1-3.1c-0.3-0.5-0.6-0.9-0.9-1.2c-0.2-0.2-0.5-0.2-0.8-0.2
						c-0.4,0-0.7,0.3-0.8,0.7C448.9,310.8,449,311.9,449.3,313.3"/>
				</g>
				<g>
					<path class="st12" d="M442.1,308.9l2.4,10.2c0.2,1,0.5,1.6,0.7,1.9c0.2,0.2,0.6,0.4,1.1,0.4l0.1,0.5l-4.6,0.2l-0.4-1.8
						c-0.4,0.8-0.8,1.3-1.2,1.7c-0.5,0.4-1,0.5-1.7,0.6c-0.6,0-1.2-0.2-1.9-0.6c-0.6-0.4-1-1-1.4-1.5c-0.3-0.6-0.7-1.7-1-3.1
						l-1.2-5.2c-0.2-1-0.5-1.6-0.7-1.9c-0.2-0.2-0.6-0.4-1.1-0.5l-0.1-0.5l4.6-0.2l2.1,8.9c0.2,0.9,0.4,1.5,0.5,1.8l0.5,0.6l0.6,0.2
						c0.3,0,0.5-0.1,0.7-0.3c0.2-0.3,0.5-0.7,0.8-1.5l-1.7-7c-0.2-1-0.5-1.6-0.7-1.9c-0.2-0.2-0.6-0.4-1.1-0.5l-0.1-0.5L442.1,308.9
						z"/>
				</g>
				<g>
					<path class="st12" d="M425.6,309.1c1.2,0,2.2,0.3,3,0.9c0.8,0.7,1.4,1.4,1.6,2.3c0.1,0.5,0.1,0.9-0.1,1.3
						c-0.2,0.3-0.5,0.5-1,0.5c-0.5,0-0.9-0.2-1.4-0.5c-0.4-0.4-0.7-1-1-1.9c-0.2-0.6-0.4-1-0.7-1.2c-0.2-0.2-0.5-0.4-0.7-0.3
						c-0.4,0-0.7,0.3-0.8,0.7c-0.2,0.7-0.2,1.8,0.2,3.3c0.3,1.2,0.7,2.4,1.3,3.5c0.6,1.1,1.3,1.9,2,2.4c0.5,0.4,1.1,0.6,1.7,0.5
						c0.4,0,0.8-0.1,1.1-0.4c0.3-0.2,0.6-0.6,1-1.2l0.5,0.3c-0.3,1.1-0.7,2-1.4,2.6c-0.6,0.6-1.4,0.9-2.3,0.9
						c-1.5,0.1-2.9-0.6-4.1-1.9c-1.2-1.3-2-2.8-2.5-4.6c-0.4-1.8-0.4-3.3,0.1-4.7C422.7,310,423.9,309.1,425.6,309.1z"/>
				</g>
				<g>
					<path class="st12" d="M414.3,309.5c0.6,0,1.2,0.1,1.9,0.5l0.6,0.2l0.3-0.1c0.1-0.1,0.2-0.3,0.3-0.6l0.4,0l1.3,4.5l-0.4,0
						c-0.8-1.3-1.5-2.2-2.2-2.7c-0.6-0.5-1.2-0.7-1.7-0.7c-0.3,0-0.6,0.2-0.7,0.4c-0.2,0.3-0.2,0.5-0.2,0.9l0.4,0.7
						c0.4,0.4,1.2,1,2.6,1.9c1.4,0.9,2.4,1.6,2.9,2.3c0.5,0.6,0.9,1.3,1.1,2.2c0.2,0.7,0.2,1.4,0,2.1c-0.1,0.7-0.5,1.3-0.9,1.7
						c-0.5,0.4-1.1,0.6-1.8,0.6c-0.5,0-1.3-0.2-2.3-0.5l-0.5-0.2c-0.3,0-0.4,0.3-0.5,0.7l-0.4,0l-1.3-4.7l0.4,0
						c0.6,1.2,1.4,2.1,2.1,2.7c0.8,0.6,1.5,0.9,2,0.9c0.4,0,0.6-0.2,0.8-0.5c0.2-0.3,0.2-0.6,0.1-1c-0.1-0.4-0.3-0.8-0.6-1.1
						c-0.3-0.3-1-0.8-2-1.4c-1.5-0.9-2.4-1.7-2.9-2.2c-0.7-0.7-1.2-1.6-1.4-2.5c-0.2-1-0.2-1.9,0.2-2.8
						C412.4,310,413.2,309.5,414.3,309.5z"/>
				</g>
				<g>
					<path class="st12" d="M406.3,304.2l1.3,5.5l-0.4,0c-0.6-1.3-1.1-2.3-1.7-2.8c-0.6-0.6-1.3-1-2.1-1.2c-0.5-0.2-1.4-0.2-2.6-0.2
						l-1.7,0.1l1.9,7.8l0.3,0c1,0,1.7-0.4,2-1.2c0.3-0.8,0.3-1.9,0.1-3.4l0.4,0l2.4,9.9l-0.4,0c-0.4-1.1-0.8-2-1.3-2.7
						c-0.5-0.7-1-1.1-1.4-1.4c-0.5-0.2-1.1-0.3-1.9-0.3l1.3,5.3c0.3,1.1,0.4,1.7,0.6,1.9l0.6,0.5c0.2,0.2,0.6,0.2,1.1,0.2l1,0
						c1.5-0.1,2.6-0.5,3.3-1.3c0.7-0.9,1.1-2.1,1.1-3.8l0.4,0l0.7,6l-14.1,0.5l-0.1-0.5l0.6,0c0.5,0,0.8-0.1,1.1-0.4
						c0.2-0.1,0.3-0.4,0.3-0.7c0.1-0.3-0.1-0.9-0.3-1.8l-3-12.5c-0.2-0.8-0.4-1.4-0.4-1.6c-0.2-0.3-0.4-0.6-0.6-0.7
						c-0.4-0.3-0.8-0.4-1.4-0.4l-0.6,0l-0.1-0.5L406.3,304.2z"/>
				</g>
				<g>
					<path class="st12" d="M490.4,300.8l1.6,6.3l-0.5,0c-0.6-1.6-1.5-2.8-2.7-3.8c-1.1-0.9-2.2-1.4-3.3-1.3c-0.8,0-1.4,0.3-1.8,0.8
						c-0.4,0.5-0.5,1.1-0.3,1.8c0.1,0.4,0.3,0.8,0.5,1.1c0.4,0.4,0.8,0.8,1.5,1.3c0.5,0.3,1.5,0.8,3,1.5c2.2,1,3.7,2,4.6,2.9
						c0.9,1,1.4,2.1,1.8,3.3c0.4,1.6,0.2,3-0.6,4.1c-0.8,1.2-2,1.8-3.7,1.9c-0.5,0-1,0-1.5-0.1c-0.5-0.1-1.1-0.3-1.9-0.6
						c-0.4-0.2-0.8-0.3-1-0.3l-0.6,0.3c-0.2,0.2-0.3,0.5-0.4,0.9l-0.4,0l-1.7-7.1l0.4,0c0.8,2,1.9,3.5,3.2,4.5
						c1.3,1,2.5,1.5,3.7,1.5c0.9,0,1.6-0.3,2-0.9c0.4-0.6,0.5-1.3,0.4-2c-0.1-0.5-0.3-0.9-0.6-1.3c-0.3-0.4-0.7-0.8-1.2-1.2
						c-0.5-0.4-1.4-0.8-2.6-1.4c-1.7-0.8-3-1.5-3.7-2.1c-0.8-0.6-1.5-1.2-2-1.9c-0.5-0.7-0.9-1.5-1.1-2.4c-0.4-1.5-0.2-2.8,0.5-3.9
						c0.7-1.1,1.8-1.6,3.2-1.7c0.5,0,1.1,0,1.6,0.1c0.4,0.1,0.9,0.3,1.5,0.6c0.6,0.3,1,0.4,1.3,0.4l0.4-0.2c0.1-0.1,0.1-0.5,0.1-1.1
						L490.4,300.8z"/>
				</g>
				<g>
					<path class="st12" d="M520.4,309.2c0.6,1,1.1,2.2,1.4,3.4c0.3,1.3,0.4,2.5,0.3,3.6c-0.1,1.1-0.4,2-1,2.6
						c-0.5,0.6-1.3,0.9-2.1,0.9c-0.6,0-1.2-0.1-1.8-0.4c-0.4-0.2-1-0.6-1.6-1.2l1.2,4.9c0.2,0.7,0.3,1.1,0.5,1.4l0.5,0.6
						c0.2,0.1,0.6,0.1,1.2,0.1l0.1,0.5l-6.5,0.2l-0.1-0.5c0.5,0,0.9-0.2,1-0.5c0.1-0.2,0.1-0.8-0.1-1.7l-3.3-13.7
						c-0.2-0.9-0.5-1.5-0.7-1.8c-0.3-0.3-0.7-0.4-1.2-0.4l-0.1-0.5l4.8-0.2l0.4,1.7c0.2-0.7,0.5-1.2,0.9-1.5
						c0.5-0.4,1.1-0.7,1.7-0.7c0.9,0,1.7,0.3,2.5,0.8C519.1,307.3,519.8,308.1,520.4,309.2z M518.8,317.5c0.2-0.8,0.1-2.3-0.5-4.5
						c-0.5-2.2-1.1-3.7-1.8-4.6c-0.4-0.5-0.9-0.8-1.4-0.8c-0.8,0-1.3,0.8-1.5,2.1l1.7,6.9c1,1.1,1.8,1.6,2.6,1.6
						C518.3,318.3,518.6,318,518.8,317.5"/>
				</g>
				<g>
					<path class="st12" d="M505.6,306.6l2.4,10.2c0.2,1,0.4,1.6,0.7,1.9c0.2,0.2,0.6,0.4,1.1,0.4l0.1,0.5l-4.6,0.2l-0.4-1.8
						c-0.4,0.8-0.8,1.3-1.2,1.7c-0.5,0.4-1,0.5-1.7,0.6c-0.6,0-1.2-0.2-1.8-0.6c-0.6-0.4-1.1-1-1.4-1.5c-0.3-0.6-0.7-1.7-1-3.1
						l-1.2-5.2c-0.2-1-0.5-1.6-0.7-1.9c-0.2-0.2-0.6-0.4-1.1-0.5l-0.1-0.5l4.6-0.2l2.1,8.9c0.2,0.9,0.4,1.5,0.5,1.8l0.5,0.6l0.6,0.2
						c0.3,0,0.5-0.1,0.7-0.3c0.2-0.3,0.5-0.7,0.8-1.5l-1.7-7c-0.2-1-0.5-1.6-0.7-1.9c-0.2-0.2-0.6-0.4-1.1-0.5l-0.1-0.5L505.6,306.6
						z"/>
				</g>
				<g>
					<path class="st12" d="M571.2,304c0.5,0,0.9,0.1,1.2,0.4c0.3,0.3,0.6,0.8,0.7,1.4c0.1,0.6,0.1,1.1,0,1.5
						c-0.2,0.3-0.5,0.5-0.8,0.5c-0.4,0-0.8-0.1-1.2-0.4c-0.4-0.3-0.6-0.5-0.7-0.5l-0.3-0.1c-0.2,0-0.4,0.1-0.6,0.3
						c-0.3,0.4-0.4,0.8-0.4,1.4c0,0.9,0.1,1.9,0.3,3l0.7,3l0.2,0.7c0.1,0.5,0.2,0.9,0.3,1l0.5,0.6c0.2,0.1,0.6,0.2,1,0.2l0.1,0.5
						l-6.1,0.2l-0.1-0.5c0.5-0.1,0.8-0.3,0.9-0.5c0.1-0.3,0-1-0.2-2.1l-1.7-7.1c-0.2-0.8-0.4-1.3-0.4-1.5c-0.1-0.3-0.3-0.5-0.5-0.6
						c-0.2-0.1-0.5-0.2-0.9-0.3l-0.1-0.5l4.6-0.2l0.7,3c0.4-1.4,0.8-2.3,1.3-2.8C570.2,304.2,570.6,304,571.2,304z"/>
				</g>
				<g>
					<path class="st12" d="M561.4,307.7c0.7,1,1.2,2.2,1.5,3.5c0.4,1.9,0.4,3.4-0.1,4.7c-0.6,1.5-1.8,2.3-3.5,2.4
						c-1.7,0.1-3.2-0.6-4.4-1.9c-1.2-1.3-2.1-2.9-2.5-4.7c-0.4-1.9-0.4-3.5,0.2-4.9c0.6-1.4,1.7-2.2,3.3-2.2c1,0,1.9,0.2,2.9,0.8
						C559.8,305.9,560.7,306.7,561.4,307.7z M560.1,315.6c0-0.9-0.4-2.7-1-5.3c-0.4-1.6-0.7-2.7-1-3.2c-0.3-0.6-0.6-1-1-1.2
						c-0.2-0.2-0.5-0.3-0.9-0.3c-0.4,0-0.8,0.2-1,0.6c-0.2,0.3-0.2,1.1-0.1,2.1c0.1,1,0.5,2.5,0.9,4.4c0.2,1,0.5,1.9,0.8,2.8
						c0.3,0.6,0.6,1.2,0.9,1.5c0.4,0.3,0.8,0.5,1.1,0.5c0.4,0,0.7-0.1,0.8-0.4C560.1,316.6,560.2,316.2,560.1,315.6"/>
				</g>
				<g>
					<path class="st12" d="M551.5,317.3c0.3,0.2,0.7,0.4,1.2,0.4l0.1,0.5l-6.1,0.2l-0.1-0.5c0.5,0,0.9-0.2,1-0.5
						c0.1-0.2,0.1-0.8-0.2-1.7l-1.8-7.6c-0.2-0.9-0.5-1.5-0.7-1.8c-0.2-0.3-0.6-0.4-1.2-0.4l-0.1-0.5l4.8-0.2l2.5,10.4
						C551,316.4,551.2,317,551.5,317.3z"/>
				</g>
				<g>
					<path class="st12" d="M541.1,305c0.4,0,0.8,0.1,1.2,0.4c0.3,0.3,0.6,0.8,0.7,1.4c0.1,0.6,0.1,1.1,0,1.5
						c-0.2,0.3-0.5,0.5-0.8,0.5c-0.4,0-0.8-0.1-1.2-0.4c-0.4-0.3-0.6-0.5-0.6-0.5l-0.3-0.1l-0.6,0.3c-0.3,0.4-0.4,0.8-0.4,1.4
						c-0.1,0.9,0.1,1.9,0.3,3l0.7,3l0.2,0.7c0.1,0.5,0.2,0.9,0.3,1l0.6,0.5c0.2,0.1,0.6,0.2,1,0.2l0.1,0.5l-6.1,0.2l-0.1-0.5
						c0.5-0.1,0.8-0.3,0.9-0.5c0.1-0.3,0-1-0.2-2.1l-1.7-7.1c-0.2-0.8-0.3-1.3-0.4-1.5c-0.1-0.3-0.3-0.5-0.5-0.6
						c-0.2-0.1-0.5-0.2-0.9-0.3l-0.1-0.5l4.6-0.2l0.7,3c0.4-1.4,0.8-2.3,1.3-2.8C540.1,305.3,540.6,305,541.1,305z"/>
				</g>
				<g>
					<path class="st12" d="M532.5,316.6c0.3-0.3,0.6-0.9,0.9-1.7l0.5,0.4c-0.3,1.4-0.7,2.4-1.3,3.1c-0.6,0.6-1.4,0.9-2.3,1
						c-1.7,0.1-3.1-0.6-4.3-2.1c-1-1.2-1.7-2.6-2.1-4.4c-0.5-2.2-0.4-3.9,0.3-5.2c0.7-1.3,1.7-2,3.1-2.1c1.1,0,2.3,0.5,3.3,1.5
						c1.1,1,2,2.6,2.5,4.7l-6.2,0.2c0.5,1.7,1.2,3.1,2.2,4.1c0.7,0.7,1.5,1.1,2.3,1.1C531.8,317.2,532.2,317,532.5,316.6z
						 M526.5,310.6l0.1,0.5l3.3-0.1c-0.4-1.5-0.7-2.5-1-3.1c-0.3-0.5-0.6-0.9-1-1.2c-0.2-0.2-0.4-0.2-0.7-0.2
						c-0.4,0-0.7,0.3-0.9,0.7C526.1,308.1,526.2,309.2,526.5,310.6"/>
				</g>
				<g>
					<path class="st12" d="M546.2,303.2c-0.5,0-1-0.2-1.5-0.6c-0.5-0.4-0.8-0.9-0.9-1.5c-0.1-0.6-0.1-1.1,0.2-1.5
						c0.2-0.4,0.6-0.6,1.2-0.7c0.5,0,1,0.2,1.4,0.6c0.5,0.4,0.8,0.9,0.9,1.5c0.1,0.6,0.1,1.1-0.2,1.5
						C547,302.9,546.7,303.2,546.2,303.2z"/>
				</g>
				<g>
					<path class="st12" d="M603.7,314.2c0.3-0.3,0.6-0.9,0.9-1.7l0.5,0.4c-0.3,1.4-0.7,2.4-1.3,3.1c-0.6,0.6-1.3,0.9-2.3,1
						c-1.7,0.1-3.1-0.6-4.3-2.1c-1-1.2-1.7-2.6-2.1-4.4c-0.5-2.2-0.4-3.9,0.3-5.2c0.7-1.3,1.7-2,3.1-2.1c1.1,0,2.3,0.5,3.3,1.5
						c1.1,1,2,2.6,2.5,4.7l-6.2,0.2c0.5,1.7,1.2,3.1,2.2,4.1c0.7,0.7,1.5,1.1,2.3,1.1C603,314.7,603.4,314.5,603.7,314.2z
						 M597.7,308.2l0.1,0.5l3.3-0.1c-0.4-1.5-0.7-2.5-1-3.1c-0.3-0.5-0.6-0.9-1-1.2c-0.2-0.2-0.4-0.2-0.7-0.2
						c-0.4,0-0.7,0.3-0.9,0.7C597.3,305.6,597.4,306.7,597.7,308.2"/>
				</g>
				<g>
					<path class="st12" d="M593.7,315.3c0.2,0.1,0.5,0.2,1,0.2l0.1,0.5l-4.5,1.2l-0.5-2.1c-0.4,0.8-0.8,1.4-1.1,1.7
						c-0.4,0.3-0.8,0.5-1.4,0.5c-1.4,0.1-2.7-0.6-3.9-2.1c-0.9-1.2-1.6-2.6-2-4.4c-0.3-1.4-0.4-2.7-0.3-3.8c0.1-1.1,0.5-2,1.1-2.6
						c0.6-0.6,1.3-0.9,2.1-0.9c0.5,0,1,0.1,1.5,0.3c0.5,0.2,1,0.6,1.6,1.2l-1-4c-0.2-1-0.4-1.6-0.5-1.8l-0.6-0.6
						c-0.2-0.2-0.6-0.2-1.2-0.2L584,298l5.1-0.2l3.6,15c0.2,1,0.4,1.6,0.5,1.8C593.3,314.9,593.5,315.1,593.7,315.3z M589.5,313.6
						l-1.6-6.9c-0.9-1.3-1.7-1.9-2.6-1.8c-0.3,0-0.5,0.1-0.6,0.3c-0.2,0.3-0.4,0.8-0.4,1.6c0,0.7,0.2,1.8,0.5,3.3
						c0.4,1.6,0.8,2.8,1.2,3.6c0.4,0.8,0.8,1.3,1.2,1.7c0.2,0.2,0.5,0.2,0.8,0.2C588.7,315.6,589.2,314.9,589.5,313.6"/>
				</g>
				<g>
					<path class="st12" d="M442.5,355.6c0.3,0.2,0.7,0.4,1.2,0.4l0.1,0.5l-6.1,0.2l-0.1-0.5c0.5,0,0.8-0.2,1-0.5
						c0.1-0.2,0.1-0.8-0.2-1.7l-1.8-7.6c-0.2-1-0.5-1.6-0.7-1.8c-0.3-0.2-0.7-0.4-1.2-0.4l-0.1-0.5l4.7-0.2l2.5,10.4
						C442.1,354.8,442.3,355.3,442.5,355.6z"/>
				</g>
				<g>
					<path class="st12" d="M429.1,343.4c0.8,0,1.5,0.2,2,0.6c0.6,0.4,1,0.9,1.4,1.6c0.3,0.6,0.7,1.6,1,3l1.3,5.3
						c0.2,1,0.5,1.6,0.7,1.9c0.2,0.2,0.6,0.4,1.1,0.4l0.1,0.5l-5.8,0.2l-0.1-0.5c0.5,0,0.7-0.3,0.9-0.6c0.1-0.3,0-0.9-0.2-1.8
						l-1.3-5.5c-0.3-1.2-0.5-1.9-0.6-2.2c-0.1-0.3-0.4-0.6-0.5-0.7l-0.7-0.2c-0.4,0-0.7,0.2-0.9,0.5c-0.3,0.3-0.6,0.8-0.8,1.4
						l1.7,6.9c0.2,1,0.4,1.6,0.6,1.8c0.3,0.3,0.7,0.5,1.2,0.5l0.1,0.5l-5.8,0.2l-0.1-0.5c0.3,0,0.6-0.1,0.7-0.3l0.2-0.6
						c0-0.2-0.1-0.7-0.3-1.5l-1.3-5.5c-0.3-1.2-0.5-1.9-0.6-2.2c-0.2-0.3-0.3-0.5-0.6-0.7l-0.7-0.3c-0.3,0-0.6,0.1-0.8,0.3
						c-0.3,0.3-0.6,0.8-0.9,1.5l1.7,6.9c0.2,0.9,0.4,1.5,0.7,1.8c0.2,0.3,0.6,0.5,1.1,0.5l0.1,0.5l-5.8,0.2l-0.1-0.5
						c0.4-0.1,0.7-0.3,0.9-0.6c0.1-0.2,0-0.8-0.2-1.8l-1.8-7.3c-0.2-1-0.5-1.6-0.7-1.8c-0.2-0.3-0.6-0.4-1.1-0.5l-0.1-0.5l4.6-0.2
						l0.4,1.8c0.4-0.8,0.9-1.4,1.3-1.7c0.5-0.4,1-0.5,1.6-0.6c0.7,0,1.4,0.2,1.9,0.5c0.6,0.4,1.1,1,1.6,1.8c0.4-0.9,0.9-1.5,1.4-1.9
						C427.9,343.7,428.5,343.5,429.1,343.4z"/>
				</g>
				<g>
					<path class="st12" d="M414.9,356c0.2,0.1,0.6,0.2,1,0.2l0.1,0.5l-4.5,1.2l-0.5-2c-0.4,0.8-0.8,1.3-1.1,1.7
						c-0.4,0.3-0.8,0.5-1.4,0.5c-1.4,0-2.7-0.6-3.9-2.1c-0.9-1.2-1.6-2.6-2.1-4.4c-0.3-1.4-0.4-2.6-0.3-3.8c0.2-1.1,0.5-2,1.1-2.6
						c0.6-0.6,1.3-0.9,2.1-0.9c0.5,0,1.1,0.1,1.5,0.3c0.4,0.2,1,0.6,1.6,1.2l-1-4c-0.2-1-0.4-1.6-0.5-1.8l-0.6-0.6
						c-0.2-0.1-0.6-0.2-1.1-0.1l-0.1-0.6l5-0.2l3.6,15c0.2,1,0.4,1.6,0.5,1.8C414.5,355.7,414.7,355.9,414.9,356z M410.7,354.4
						l-1.6-6.9c-0.9-1.3-1.7-1.9-2.6-1.8c-0.3,0-0.5,0.1-0.6,0.3c-0.2,0.3-0.4,0.8-0.4,1.5c0,0.7,0.2,1.8,0.5,3.3
						c0.4,1.6,0.8,2.8,1.2,3.6c0.4,0.8,0.8,1.3,1.3,1.7c0.2,0.2,0.5,0.3,0.8,0.3C409.9,356.4,410.4,355.7,410.7,354.4"/>
				</g>
				<g>
					<path class="st12" d="M401.4,356.9c0.4,0.3,0.8,0.5,1.3,0.5l0.1,0.5l-7.8,0.3l-0.1-0.5l0.3,0c0.6,0,1-0.2,1.2-0.4
						c0.2-0.2,0.2-0.4,0.1-0.7l-0.2-0.5c0-0.1-0.2-0.4-0.6-1.1l-1.4-2.3l-5.7,0.2l-0.3,1.9c-0.1,0.7-0.1,1.2,0,1.6
						c0.1,0.5,0.4,0.9,0.8,1.2c0.3,0.1,0.8,0.2,1.7,0.3l0.1,0.5l-5.4,0.2l-0.1-0.5c0.6-0.1,1-0.4,1.2-0.9c0.3-0.5,0.5-1.4,0.7-2.9
						l2.2-15.3l0.2,0l9.5,15.3C400.3,355.6,401,356.6,401.4,356.9z M388.7,351.9l4.9-0.2l-4-6.5L388.7,351.9"/>
				</g>
				<g>
					<path class="st12" d="M437.2,341.5c-0.5,0-1-0.2-1.5-0.5c-0.5-0.4-0.8-0.9-0.9-1.5c-0.1-0.6-0.1-1.1,0.2-1.5
						c0.3-0.4,0.7-0.7,1.2-0.7c0.5,0,1,0.2,1.4,0.6c0.5,0.4,0.8,0.9,0.9,1.5c0.1,0.6,0.1,1.1-0.2,1.5
						C438.1,341.2,437.7,341.5,437.2,341.5z"/>
				</g>
				<g>
					<path class="st12" d="M463,354.8c0.3,0.2,0.7,0.4,1.2,0.4l0.1,0.5l-6.2,0.2l-0.1-0.5c0.5,0,0.9-0.2,1-0.5
						c0.1-0.2,0.1-0.8-0.1-1.7l-1.8-7.6c-0.2-1-0.5-1.5-0.7-1.8c-0.3-0.2-0.7-0.4-1.2-0.4l-0.1-0.5l4.8-0.2l2.5,10.4
						C462.6,354,462.8,354.6,463,354.8z"/>
				</g>
				<g>
					<path class="st12" d="M449.7,342.7c0.7,0,1.4,0.2,2,0.7c0.6,0.4,1,1,1.4,1.7c0.2,0.5,0.6,1.5,0.9,3l1.2,5.1
						c0.2,1,0.5,1.6,0.7,1.9c0.2,0.2,0.6,0.4,1.1,0.4l0.1,0.5l-5.7,0.2l-0.1-0.5c0.4-0.1,0.7-0.3,0.8-0.6c0.1-0.3,0-0.9-0.3-1.8
						l-1.4-5.8c-0.3-1-0.5-1.7-0.6-2l-0.5-0.6l-0.6-0.2c-0.7,0-1.1,0.7-1.5,1.9l1.6,6.9c0.2,1,0.5,1.6,0.7,1.9
						c0.2,0.3,0.5,0.4,1,0.5l0.1,0.5l-5.7,0.2l-0.1-0.5c0.4-0.1,0.7-0.3,0.9-0.6c0.1-0.2,0-0.8-0.2-1.8l-1.8-7.3
						c-0.2-1-0.4-1.6-0.7-1.8c-0.2-0.3-0.6-0.4-1.1-0.5l-0.1-0.5l4.6-0.2l0.4,1.8c0.4-0.8,0.8-1.3,1.3-1.7
						C448.5,342.9,449.1,342.7,449.7,342.7z"/>
				</g>
				<g>
					<path class="st12" d="M457.7,340.8c-0.5,0-1-0.2-1.4-0.5c-0.5-0.4-0.8-0.9-0.9-1.5c-0.1-0.6-0.1-1.1,0.2-1.5
						c0.2-0.4,0.6-0.6,1.1-0.7c0.5,0,1,0.2,1.5,0.6c0.5,0.4,0.8,0.9,0.9,1.5c0.1,0.6,0.1,1.1-0.2,1.5
						C458.6,340.5,458.3,340.7,457.7,340.8z"/>
				</g>
				<g>
					<path class="st12" d="M508.5,340.7c1.2,0,2.2,0.3,3,0.9c0.8,0.7,1.4,1.4,1.6,2.2c0.1,0.5,0.1,1-0.1,1.3c-0.2,0.3-0.5,0.5-1,0.5
						c-0.5,0-0.9-0.1-1.3-0.5c-0.4-0.3-0.7-1-1.1-1.9c-0.2-0.6-0.4-1-0.6-1.2c-0.2-0.2-0.5-0.3-0.8-0.3c-0.4,0-0.7,0.3-0.8,0.7
						c-0.3,0.7-0.2,1.8,0.1,3.3c0.3,1.2,0.8,2.4,1.3,3.5c0.6,1.1,1.3,1.9,2,2.4c0.6,0.4,1.1,0.6,1.7,0.6c0.4,0,0.8-0.1,1.1-0.4
						c0.3-0.2,0.6-0.6,1-1.2l0.5,0.3c-0.3,1.2-0.7,2.1-1.4,2.7c-0.6,0.6-1.4,0.9-2.3,0.9c-1.5,0.1-2.9-0.6-4.1-1.9
						c-1.2-1.2-2-2.8-2.5-4.6c-0.4-1.8-0.4-3.3,0.1-4.7C505.6,341.6,506.8,340.7,508.5,340.7z"/>
				</g>
				<g>
					<path class="st12" d="M504.2,352.2l0.4,0.3c-0.2,0.7-0.5,1.2-0.9,1.6c-0.4,0.3-0.8,0.5-1.3,0.5c-0.6,0-1.2-0.1-1.6-0.5
						c-0.4-0.3-0.8-0.9-1-1.6c-1,1.5-2.1,2.2-3.2,2.3c-0.7,0-1.3-0.2-1.8-0.7c-0.5-0.4-0.9-1.1-1.1-1.8c-0.2-1-0.1-1.9,0.5-2.7
						c0.5-0.8,1.9-1.9,4.1-3.3L498,345c-0.2-1-0.4-1.6-0.6-1.9c-0.2-0.2-0.4-0.5-0.7-0.6c-0.3-0.2-0.6-0.3-0.9-0.3
						c-0.5,0-0.9,0.2-1.2,0.5l-0.2,0.6c0,0.2,0.2,0.4,0.5,0.7c0.4,0.4,0.7,0.8,0.7,1.1c0.1,0.5,0.1,0.9-0.2,1.2
						c-0.2,0.3-0.6,0.5-1,0.5c-0.5,0-1-0.2-1.4-0.5c-0.4-0.3-0.7-0.7-0.8-1.2c-0.2-0.7-0.1-1.3,0.2-1.9c0.3-0.6,0.8-1.1,1.6-1.5
						c0.7-0.4,1.5-0.6,2.4-0.6c1.1,0,2,0.2,2.7,0.7c0.7,0.5,1.3,1.1,1.6,1.7c0.2,0.4,0.5,1.3,0.8,2.7l1.2,5c0.1,0.6,0.3,1,0.3,1.1
						l0.3,0.3l0.3,0.1C503.9,352.7,504.1,352.6,504.2,352.2z M499.6,351.5l-1-4.3c-0.8,0.7-1.3,1.4-1.7,2.2c-0.2,0.5-0.2,1-0.1,1.5
						c0.1,0.4,0.3,0.8,0.7,1.1c0.3,0.2,0.6,0.3,0.9,0.3C498.7,352.3,499.2,352,499.6,351.5"/>
				</g>
				<g class="st13">
					<g>
						<path class="st12" d="M488.2,341.4c0.5,0,0.9,0.1,1.2,0.5c0.3,0.3,0.6,0.7,0.7,1.3c0.1,0.6,0.1,1.1,0,1.5
							c-0.2,0.4-0.5,0.5-0.8,0.5c-0.4,0-0.8-0.1-1.2-0.4c-0.4-0.3-0.6-0.5-0.7-0.5l-0.3-0.1l-0.6,0.3c-0.2,0.3-0.4,0.8-0.4,1.4
							c0,0.9,0,1.9,0.3,3l0.7,3l0.2,0.8c0.1,0.5,0.3,0.8,0.3,1l0.5,0.6c0.2,0.1,0.6,0.2,1,0.2l0.1,0.5l-6.1,0.2l-0.1-0.5
							c0.5,0,0.8-0.2,0.9-0.5c0.1-0.3,0-1-0.2-2.1l-1.7-7.1c-0.2-0.8-0.3-1.3-0.5-1.5l-0.5-0.6c-0.2-0.1-0.5-0.2-0.9-0.2l-0.1-0.5
							l4.6-0.2l0.7,3c0.4-1.4,0.9-2.3,1.3-2.7C487.2,341.6,487.7,341.4,488.2,341.4z"/>
					</g>
					<g>
						<path class="st12" d="M475.2,337.4l1.1,4.7l2.7-0.1l0.3,1.4l-2.7,0.1l1.9,8.1c0.2,0.8,0.3,1.2,0.4,1.5l0.4,0.5l0.5,0.2
							c0.5,0,0.9-0.5,1.1-1.5l0.4,0.3c-0.2,1.8-1,2.8-2.5,2.8c-0.7,0-1.4-0.2-1.9-0.6c-0.6-0.5-1-1-1.3-1.5
							c-0.2-0.3-0.4-1.2-0.7-2.6l-1.7-7.1l-1.5,0.1l-0.1-0.5c0.8-0.9,1.5-1.8,2-2.7c0.5-1,0.9-2,1.1-3.1L475.2,337.4z"/>
					</g>
					<g>
						<path class="st12" d="M465.8,342.2c0.6,0,1.2,0.2,1.9,0.5l0.6,0.2l0.3-0.1c0.1-0.1,0.2-0.3,0.3-0.6l0.4,0l1.3,4.4l-0.4,0
							c-0.8-1.3-1.5-2.2-2.1-2.7c-0.6-0.5-1.2-0.7-1.7-0.7c-0.3,0-0.6,0.1-0.7,0.4c-0.2,0.3-0.2,0.6-0.1,0.9l0.4,0.7
							c0.3,0.4,1.2,1,2.6,1.9c1.4,0.9,2.4,1.7,2.9,2.3c0.5,0.6,0.9,1.3,1.1,2.1c0.2,0.7,0.2,1.4,0,2.2c-0.1,0.7-0.5,1.2-0.9,1.7
							c-0.5,0.4-1.1,0.6-1.7,0.6c-0.5,0-1.3-0.2-2.3-0.5l-0.5-0.1c-0.2,0-0.4,0.3-0.5,0.7l-0.4,0l-1.3-4.7l0.4,0
							c0.7,1.2,1.4,2.1,2.1,2.7c0.8,0.6,1.5,0.9,2,0.9c0.4,0,0.7-0.1,0.8-0.4c0.2-0.3,0.2-0.6,0.1-1c-0.1-0.5-0.3-0.8-0.6-1.1
							c-0.3-0.3-1-0.8-1.9-1.4c-1.4-0.9-2.4-1.7-2.9-2.2c-0.7-0.7-1.2-1.6-1.4-2.5c-0.2-1-0.1-1.9,0.2-2.8
							C464,342.7,464.7,342.2,465.8,342.2z"/>
					</g>
				</g>
				<g>
					<path class="st12" d="M521.7,352.8c0.2,0.2,0.6,0.4,1.2,0.4l0.1,0.5l-6.1,0.2l-0.1-0.5c0.5,0,0.8-0.2,1-0.5
						c0.1-0.2,0.1-0.8-0.2-1.7l-1.8-7.6c-0.2-1-0.5-1.6-0.7-1.8c-0.3-0.2-0.7-0.4-1.2-0.4l-0.1-0.5l4.7-0.2l2.5,10.4
						C521.2,352,521.5,352.6,521.7,352.8z"/>
				</g>
				<g>
					<path class="st12" d="M516.4,338.7c-0.5,0-1-0.2-1.4-0.5c-0.5-0.4-0.8-0.9-0.9-1.5c-0.1-0.6-0.1-1.1,0.2-1.5
						c0.2-0.4,0.6-0.6,1.1-0.7c0.5,0,1,0.2,1.5,0.6c0.4,0.4,0.8,0.9,0.9,1.5c0.1,0.6,0.1,1.1-0.2,1.5
						C517.3,338.5,516.9,338.7,516.4,338.7z"/>
				</g>
				<g>
					<path class="st12" d="M531.6,343.3c0.7,1.1,1.2,2.2,1.5,3.5c0.4,1.8,0.4,3.4-0.1,4.7c-0.6,1.5-1.8,2.3-3.5,2.4
						c-1.7,0.1-3.2-0.6-4.4-1.9c-1.3-1.4-2.1-2.9-2.5-4.7c-0.4-1.9-0.4-3.5,0.2-4.9c0.6-1.4,1.7-2.2,3.3-2.3c1,0,1.9,0.2,2.9,0.8
						C530.1,341.4,531,342.2,531.6,343.3z M530.4,351.2c-0.1-0.9-0.4-2.7-1-5.3c-0.4-1.6-0.7-2.7-1-3.2c-0.3-0.6-0.6-1-1-1.3
						c-0.3-0.2-0.6-0.3-0.9-0.3c-0.4,0-0.7,0.2-0.9,0.6c-0.2,0.3-0.2,1.1-0.1,2.1c0.2,1.1,0.5,2.5,0.9,4.4c0.2,1,0.5,1.9,0.8,2.8
						c0.2,0.6,0.6,1.1,0.9,1.5c0.4,0.4,0.7,0.5,1.1,0.5c0.4,0,0.6-0.1,0.8-0.4C530.3,352.2,530.4,351.7,530.4,351.2"/>
				</g>
				<g>
					<polygon class="st12" points="528.4,334 525.6,339 524.5,339 524.7,334.1 					"/>
				</g>
				<g>
					<path class="st12" d="M541.1,339.5c0.7,0,1.4,0.2,2,0.7c0.6,0.4,1.1,1,1.4,1.7c0.2,0.5,0.6,1.5,0.9,3l1.2,5.1
						c0.2,1,0.5,1.6,0.7,1.9c0.2,0.2,0.6,0.4,1.1,0.4l0.1,0.5l-5.7,0.2l-0.1-0.5c0.4-0.1,0.7-0.3,0.8-0.6c0-0.3,0-0.9-0.2-1.8
						l-1.4-5.8c-0.2-1-0.5-1.7-0.6-2l-0.5-0.6l-0.6-0.2c-0.7,0-1.2,0.7-1.5,1.9l1.6,6.9c0.2,1,0.5,1.6,0.7,1.9
						c0.2,0.3,0.5,0.4,1,0.5l0.1,0.5l-5.7,0.2l-0.1-0.5c0.5-0.1,0.7-0.3,0.9-0.6c0.1-0.2,0-0.8-0.2-1.8l-1.8-7.3
						c-0.2-1-0.5-1.6-0.7-1.8c-0.2-0.3-0.6-0.4-1.1-0.5l-0.1-0.5l4.6-0.2l0.4,1.8c0.4-0.8,0.8-1.3,1.3-1.7
						C540,339.7,540.5,339.6,541.1,339.5z"/>
				</g>
				<g>
					<path class="st12" d="M563.9,334.6c1.2,0.9,2,2.1,2.4,3.5c0.3,1.2,0.2,2.3-0.2,3.2c-0.4,0.9-1.2,1.5-2.3,1.9
						c-0.7,0.3-2,0.4-3.9,0.4l1.3,5.3c0.2,1,0.5,1.7,0.6,2c0.2,0.3,0.4,0.5,0.7,0.6c0.3,0.1,0.9,0.2,1.6,0.2l0.1,0.5l-8.4,0.3
						l-0.1-0.5c0.8,0,1.3-0.1,1.5-0.3c0.2-0.2,0.4-0.4,0.4-0.6c0-0.3-0.1-0.9-0.3-2l-2.9-12.3c-0.2-1-0.4-1.6-0.6-1.9
						c-0.2-0.3-0.4-0.5-0.7-0.6c-0.3-0.2-0.9-0.2-1.6-0.2l-0.1-0.5l7.1-0.2C560.9,333.3,562.7,333.7,563.9,334.6z M562.3,341.6
						c0.4-0.7,0.4-1.8,0-3.2c-0.3-1.4-0.8-2.4-1.5-3.1c-0.7-0.6-1.6-0.9-2.6-0.9l-0.5,0l2,8.3c0.3,0,0.5,0,0.6,0
						C561.3,342.7,562,342.3,562.3,341.6"/>
				</g>
				<g>
					<path class="st12" d="M582.1,350.7c0.2,0.2,0.6,0.4,1.1,0.4l0.1,0.5l-4.6,0.2l-0.4-1.8c-0.4,0.8-0.8,1.3-1.2,1.7
						c-0.5,0.3-1,0.5-1.7,0.5c-0.6,0-1.2-0.2-1.8-0.6c-0.6-0.4-1.1-1-1.4-1.5c-0.3-0.6-0.7-1.7-1-3.2l-1.2-5.2
						c-0.2-1-0.5-1.6-0.7-1.8c-0.2-0.3-0.6-0.4-1.1-0.5l-0.1-0.5l4.6-0.2l2.1,8.9c0.2,0.9,0.4,1.5,0.5,1.8l0.5,0.6l0.6,0.2
						c0.3,0,0.5-0.1,0.7-0.3c0.3-0.3,0.5-0.8,0.8-1.5l-1.7-7c-0.2-1-0.5-1.6-0.7-1.8c-0.2-0.3-0.6-0.4-1.1-0.5l-0.1-0.5l4.6-0.2
						l2.4,10.2C581.6,349.8,581.9,350.4,582.1,350.7z"/>
				</g>
				<g>
					<polygon class="st12" points="576.1,332.3 573.3,337.3 572.3,337.3 572.5,332.5 					"/>
				</g>
				<g>
					<path class="st12" d="M633.2,347.7l0.4,0.3c-0.2,0.7-0.5,1.2-0.9,1.6c-0.3,0.3-0.8,0.5-1.3,0.5c-0.6,0-1.1-0.1-1.6-0.5
						c-0.4-0.3-0.8-0.9-1-1.6c-1,1.5-2.1,2.2-3.2,2.3c-0.6,0-1.2-0.2-1.8-0.7c-0.5-0.4-0.9-1.1-1.1-1.8c-0.2-1-0.1-1.9,0.5-2.7
						c0.5-0.8,1.9-1.9,4-3.3l-0.3-1.3c-0.2-1-0.4-1.6-0.6-1.9c-0.2-0.3-0.4-0.5-0.7-0.6c-0.3-0.2-0.6-0.3-0.9-0.3
						c-0.5,0-0.9,0.2-1.2,0.5l-0.2,0.6c0,0.2,0.2,0.4,0.5,0.7c0.4,0.4,0.7,0.8,0.7,1.1c0.1,0.5,0,0.9-0.2,1.2
						c-0.2,0.3-0.5,0.5-1,0.5c-0.5,0-1-0.2-1.4-0.5c-0.4-0.3-0.7-0.7-0.8-1.2c-0.2-0.6-0.1-1.3,0.2-1.9c0.3-0.6,0.8-1.1,1.6-1.5
						c0.7-0.4,1.5-0.6,2.4-0.6c1,0,2,0.2,2.7,0.7c0.7,0.5,1.3,1.1,1.6,1.7c0.2,0.4,0.5,1.3,0.8,2.7l1.2,5c0.1,0.6,0.3,1,0.3,1.1
						l0.3,0.3l0.3,0.1C633,348.2,633.1,348.1,633.2,347.7z M628.6,347l-1-4.3c-0.8,0.7-1.3,1.4-1.7,2.2c-0.2,0.5-0.2,1-0.1,1.5
						c0.1,0.4,0.3,0.8,0.7,1.1c0.2,0.2,0.5,0.3,0.9,0.3C627.8,347.8,628.2,347.5,628.6,347"/>
				</g>
				<g>
					<path class="st12" d="M614.4,337c1.2,0,2.2,0.3,3,0.9c0.8,0.7,1.4,1.4,1.6,2.2c0.1,0.5,0.1,1-0.1,1.3c-0.2,0.3-0.5,0.5-1,0.5
						c-0.5,0-0.9-0.1-1.3-0.5c-0.4-0.3-0.7-1-1-1.9c-0.2-0.6-0.4-1-0.7-1.2c-0.2-0.2-0.5-0.3-0.7-0.3c-0.4,0-0.7,0.3-0.9,0.7
						c-0.2,0.7-0.2,1.8,0.1,3.3c0.3,1.2,0.8,2.4,1.3,3.5c0.6,1.1,1.3,1.9,2,2.4c0.5,0.4,1.1,0.6,1.7,0.6c0.4,0,0.8-0.1,1-0.4
						c0.3-0.2,0.7-0.6,1-1.2l0.5,0.3c-0.3,1.2-0.7,2.1-1.4,2.7c-0.6,0.6-1.4,0.9-2.3,0.9c-1.5,0.1-2.9-0.6-4.1-1.9
						c-1.2-1.2-2-2.8-2.5-4.6c-0.4-1.8-0.4-3.3,0.1-4.7C611.5,337.9,612.7,337,614.4,337z"/>
				</g>
				<g>
					<path class="st12" d="M609.8,349.7c0.3,0.2,0.7,0.4,1.2,0.4l0.1,0.5l-6.2,0.2l-0.1-0.5c0.5,0,0.9-0.2,1-0.5
						c0.1-0.2,0.1-0.8-0.2-1.7l-1.8-7.6c-0.2-1-0.4-1.6-0.7-1.8c-0.3-0.2-0.7-0.4-1.2-0.4l-0.1-0.5l4.8-0.2l2.5,10.4
						C609.4,348.9,609.6,349.5,609.8,349.7z"/>
				</g>
				<g>
					<path class="st12" d="M604.5,335.6c-0.5,0-1-0.2-1.5-0.5c-0.5-0.4-0.8-0.9-0.9-1.5c-0.1-0.6-0.1-1.1,0.2-1.5
						c0.2-0.4,0.6-0.6,1.2-0.7c0.5,0,1,0.2,1.5,0.6c0.4,0.4,0.8,0.9,0.9,1.5c0.1,0.6,0.1,1.1-0.2,1.5
						C605.4,335.4,605,335.6,604.5,335.6z"/>
				</g>
				<g>
					<path class="st12" d="M598.4,332l3.9,16.2c0.2,0.9,0.5,1.5,0.7,1.7c0.2,0.2,0.6,0.4,1.2,0.4l0.1,0.5l-6.1,0.2l-0.1-0.5
						c0.5,0,0.9-0.2,1-0.5c0.1-0.2,0.1-0.8-0.2-1.7l-3.2-13.6c-0.2-0.9-0.5-1.5-0.7-1.8c-0.2-0.2-0.6-0.3-1.2-0.4l-0.1-0.5
						L598.4,332z"/>
				</g>
				<g>
					<path class="st12" d="M593.6,340.7c0.6,0.9,1.1,2.1,1.4,3.3c0.3,1.4,0.4,2.7,0.2,3.9c-0.2,1.2-0.6,2.1-1.3,2.8
						c-0.7,0.6-1.5,0.9-2.6,1c-0.6,0-1.1,0-1.7-0.3c-0.5-0.2-1.1-0.5-1.6-1l-1.6,1.5l-0.4,0l-4-16.6c-0.2-0.8-0.3-1.2-0.4-1.4
						l-0.5-0.6c-0.2-0.1-0.5-0.2-1-0.2l-0.1-0.5l4.7-0.2l1.7,7.2c0.7-1.2,1.6-1.8,2.7-1.8c0.8,0,1.6,0.2,2.4,0.7
						C592.3,339.1,593,339.8,593.6,340.7z M592.3,348.7c0-0.8-0.3-2.2-0.8-4.3c-0.5-2-1-3.3-1.6-4.1c-0.5-0.6-0.9-0.8-1.4-0.7
						c-0.7,0-1.3,0.5-1.7,1.4l1.4,5.8c0.3,1.2,0.5,1.9,0.6,2.2c0.2,0.6,0.5,1,0.9,1.3c0.4,0.3,0.8,0.5,1.3,0.4c0.4,0,0.7-0.1,1-0.4
						C592.1,350,592.3,349.5,592.3,348.7"/>
				</g>
				<g>
					<path class="st14" d="M477,453c0,0.1,0,0.1,0.1,0.2c0,0,0,0,0,0C477.1,453.1,477.1,453.1,477,453z"/>
					<g class="st13">
						<defs>
							<path id="SVGID_13_" class="st13" d="M477,453c0,0.1,0,0.1,0.1,0.2c0,0,0,0,0,0C477.1,453.1,477.1,453.1,477,453z"/>
						</defs>
						<clipPath id="SVGID_14_">
							<use xlink:href="#SVGID_13_"  style="overflow:visible;"/>
						</clipPath>
						<g class="st15">
							<g>
								<defs>
									<polyline id="SVGID_15_" points="477.1,453.1 477.1,453.1 477.1,453.1 477.1,453.1 477.1,453.1 477.1,453.1 477.1,453.1 
										477.1,453.1 477.1,453.1 477.1,453.1 477.1,453.1 477.1,453.1 477.1,453.1 477.1,453.1 477.1,453.1 477.1,453 477.1,453 
										477,453 477,453 477,453 477,453 477,453 477,453 477,453 477,453 477,453 477,453 477,453 477,453 477,453 477,453 
										477.1,453 477.1,453.1 477.1,453.1 477.1,453.1 477.1,453.1 477.1,453.1 477.1,453.1 477.1,453.1 477.1,453.1 477.1,453.1 
										477.1,453.1 477.1,453.1 477.1,453.2 477.1,453.1 									"/>
								</defs>
								<clipPath id="SVGID_16_">
									<use xlink:href="#SVGID_15_"  style="overflow:visible;"/>
								</clipPath>
								<g transform="matrix(1 0 0 1 0 0)" style="clip-path:url(#SVGID_16_);">
									
										<image style="overflow:visible;" width="1" height="1" xlink:href="F1066E29760DBE4C.png"  transform="matrix(0.803 0 0 0.803 477.0277 452.9835)">
									</image>
								</g>
							</g>
						</g>
					</g>
				</g>
			</g>
		</g>
	</g>
	<g>
		
			<image style="overflow:visible;opacity:0.75;" width="187" height="75" xlink:href="F1066E29760DBE44.png"  transform="matrix(1 0 0 1 182.3657 299.3854)">
		</image>
		<g>
			<g>
				<g>
					<linearGradient id="SVGID_17_" gradientUnits="userSpaceOnUse" x1="274.5818" y1="369.6571" x2="274.5818" y2="302.3119">
						<stop  offset="0" style="stop-color:#1A1E3A"/>
						<stop  offset="5.390839e-02" style="stop-color:#1A2442"/>
						<stop  offset="0.187" style="stop-color:#192E51"/>
						<stop  offset="0.2972" style="stop-color:#193256"/>
						<stop  offset="0.5045" style="stop-color:#14375F"/>
						<stop  offset="0.8423" style="stop-color:#084477"/>
						<stop  offset="1" style="stop-color:#014B85"/>
					</linearGradient>
					<path class="st16" d="M363.9,353.7c-74.1,39.2-168.6-8.6-178.1,9.7c-0.2,0.3-0.7,0.2-0.7-0.1c-0.5-7.1,1.7-41.1,8.4-53
						c9.3-16.4,64.5,20.7,165.1-8c0.3-0.1,0.6,0.2,0.5,0.5c-3.5,11-6.1,17.2-10.2,27.5c0,0.1,0,0.2,0,0.3
						c4.2,11.5,12.2,17.5,15.2,22.6C364.2,353.4,364.1,353.6,363.9,353.7z"/>
				</g>
				
					<linearGradient id="SVGID_18_" gradientUnits="userSpaceOnUse" x1="116.7378" y1="367.791" x2="369.0604" y2="367.791" gradientTransform="matrix(0.6843 0.137 -0.154 0.9847 168.8178 -60.8523)">
					<stop  offset="0" style="stop-color:#A17214"/>
					<stop  offset="1" style="stop-color:#A17214"/>
				</linearGradient>
				<path class="st17" d="M349.3,330.3c-0.1-0.1-0.1-0.2,0-0.4c4.2-10.5,6.8-16.5,10.4-27.9c-0.8,0.2-1.6,0.4-2.3,0.7
					c-3.4,10.3-6.2,16.9-10.4,27.5c0,0.1,0,0.2,0,0.3c1.2,1.8,13,19.4,14.8,22.1c0.1,0.2,0,0.4-0.2,0.5c-71.3,36.3-166.7-9-176.6,9
					c0,2.1,0.4,2.7,0.4,2.6c6.7-21.4,103.3,28.9,178.8-11c0.2-0.1,0.3-0.3,0.2-0.5C363.1,351.2,356.1,340.5,349.3,330.3z"/>
			</g>
		</g>
	</g>
	<g>
		<g class="st18">
			
				<image style="overflow:visible;" width="185" height="109" xlink:href="F1066E29760DBE46.png"  transform="matrix(1 0 0 1 179.9169 283.9366)">
			</image>
		</g>
		<g>
			<g>
				<path class="st19" d="M225,340.7c-0.2,0-0.2,0-0.3,0.2c-0.6,1-0.9,1.5-1.4,2.6c-0.5,0.8-0.8,1.6-0.9,2c-0.1,0.6,0.2,1,0.9,1.2
					c0.3,0.1,0.9,0.3,1.2,0.4c0.5,0.1,0.6,0.3,0.6,0.5c0,0.3-0.3,0.3-0.8,0.2c-1.5-0.3-2.6-0.6-4.4-1c-0.4-0.1-2.6-0.4-4.3-0.7
					c-0.5-0.1-0.6-0.2-0.6-0.4c0-0.3,0.3-0.3,0.7-0.2c0.4,0.1,0.7,0.1,1.1,0.1c1.2,0,2.1-0.9,3-2.4c4.9-7.4,7.2-11.2,11.7-18.9
					c0.8-1.4,1.2-1.8,1.6-1.8c0.3,0,0.5,0.6,0.9,1.9c0.6,2,4.4,16.2,6.1,21.8c0.8,2.9,1.5,3.8,2.7,4.1c0.4,0.2,0.8,0.2,1.1,0.3
					c0.4,0.1,0.6,0.2,0.6,0.4c0,0.2-0.3,0.3-0.9,0.2c-3.3-0.5-7.2-1.2-9.3-1.6c-0.5-0.1-0.7-0.2-0.7-0.4c0-0.2,0.2-0.3,0.5-0.3
					c0.4,0,0.5-0.2,0.5-0.5c-0.6-2.3-0.9-3.5-1.6-5.8c0-0.1-0.1-0.2-0.2-0.3C229.6,341.6,228.1,341.3,225,340.7z M232,339.2
					c0.2,0,0.2-0.1,0.2-0.1c-0.8-3.1-1.2-4.7-1.9-7.8c-0.1-0.3-0.1-0.2-0.2,0c-1.5,2.7-2.3,4.1-3.8,6.8c0,0.1,0,0.2,0.1,0.2
					C228.6,338.6,229.8,338.8,232,339.2z"/>
				<path class="st19" d="M252.2,327.2c0.1-1,0.3-1.7,0.6-1.7c0.3,0,0.4,0.1,1.2,0.9c1.3,1.3,2.7,3.2,10,11c3.2,3.5,5.5,5.9,6.4,6.8
					c0-5.3,0-8.1,0-13.4c0-2-0.2-2.9-1.4-3.2c-0.4-0.1-1-0.2-1.4-0.2c-0.4,0-0.6-0.2-0.6-0.4c0-0.2,0.3-0.3,0.6-0.3
					c1.3,0,3.4,0.2,4.6,0.2c0.7,0,2.3-0.1,3.6-0.1c0.5,0,0.7,0.1,0.7,0.3c0,0.2-0.2,0.4-0.5,0.4c-0.4,0-0.6,0-0.8,0.1
					c-1.1,0.1-1.4,0.7-1.5,2.9c-0.4,7.1-0.5,14.6-0.6,21.4c0,1.7-0.3,2.1-0.7,2.1c-0.5,0-1.6-0.8-3.7-2.8c-2.2-2.1-5.1-5-7-7
					c-1.8-1.9-5-5.4-7.2-8.1c-0.1,4.9-0.2,7.4-0.3,12.1c-0.1,2.5,0,3.4,0.9,3.8c0.5,0.2,1.1,0.2,1.8,0.3c0.5,0.1,0.7,0.2,0.7,0.4
					c0,0.3-0.3,0.3-0.8,0.3c-1.2-0.1-2.3-0.2-4.4-0.4c-0.8-0.1-3.3-0.2-4.6-0.3c-0.5-0.1-0.7-0.2-0.7-0.4c0-0.2,0.2-0.3,0.7-0.3
					c0.3,0,0.7,0,1.1,0c1.3-0.1,1.6-0.9,1.9-4.1C251.3,340.5,251.7,331.7,252.2,327.2z M260.5,321.7c-1.4-0.1-2.1,0.5-2.8,1.3
					c-0.2,0.3-0.3,0.3-0.5,0.3c-0.2,0-0.2-0.2,0-0.7c1.1-1.9,2.7-3.1,4-3.1c1.1,0,1.5,0.3,2.9,0.9c1.5,0.7,2.1,1,2.9,1.1
					c1.2,0,1.7-0.4,2.7-1.5c0.2-0.2,0.2-0.2,0.3-0.2c0.2,0,0.2,0.3,0,0.6c-1.1,1.9-2.4,3.4-4.1,3.4
					C264.3,323.7,262.1,321.8,260.5,321.7z"/>
				<path class="st19" d="M278.8,341.1c0.2-7.2,4.7-13.9,14.1-13.9c8.1,0,13.4,5.6,13.7,12.7c0.3,8.1-4.9,14.9-13.8,15.1
					C282.7,355.1,278.7,347.5,278.8,341.1z M300,341.8c-0.1-5.9-2.5-12.4-8.2-12.4c-3,0-6.3,1.8-6.4,10.3
					c-0.1,6.8,2.5,13.2,8.3,13.1C295.9,352.7,300.2,351.6,300,341.8z"/>
				<path class="st19" d="M311.7,352.1c-0.6-0.2-0.8-0.6-0.8-1.3c-0.1-2.7-0.1-4.1,0-5c0-0.6,0.2-0.8,0.4-0.9c0.2,0,0.3,0.3,0.3,0.6
					c0.1,0.3,0.1,0.6,0.2,1c0.7,2.7,3.3,4.1,6,3.8c3.2-0.3,4.1-2.1,4-3.5c-0.1-1.4-0.5-2.6-3.4-4.3c-0.9-0.5-1.3-0.8-2.1-1.3
					c-4.2-2.6-5.4-4.9-5.6-8c-0.2-4,2.7-7.3,7.8-7.7c1.4-0.1,2.3-0.1,3.7,0.1c0.5,0.1,1.1,0.2,1.6,0.3c0.3,0.1,0.4,0.2,0.5,0.4
					c0.1,1,0,1.8,0.3,4.8c0,0.6,0,0.8-0.3,0.9c-0.2,0-0.3-0.1-0.4-0.6c-0.1-0.3-0.2-1.2-0.7-1.9c-0.7-1-2.3-2.1-4.6-1.9
					c-2.6,0.2-3.5,1.8-3.4,3.4c0.1,1.2,0.5,2.5,2.8,3.9c0.7,0.4,1,0.6,1.7,1c4.8,2.8,6.5,4.7,6.7,8.1c0.2,2.3-0.7,4.7-3.1,6.4
					c-1.9,1.3-4,1.9-5.8,2C314.9,352.7,313.1,352.6,311.7,352.1z"/>
			</g>
		</g>
	</g>
</g>
</svg>
